EESchema Schematic File Version 4
EELAYER 30 0
EELAYER END
$Descr A4 11693 8268
encoding utf-8
Sheet 1 1
Title "m5stack header to FPC 12 0.5mm"
Date "2022-05-29"
Rev "1.0"
Comp ""
Comment1 ""
Comment2 ""
Comment3 ""
Comment4 ""
$EndDescr
$Comp
L power:+5V #PWR0101
U 1 1 62948540
P 3500 1950
F 0 "#PWR0101" H 3500 1800 50  0001 C CNN
F 1 "+5V" H 3515 2123 50  0000 C CNN
F 2 "" H 3500 1950 50  0001 C CNN
F 3 "" H 3500 1950 50  0001 C CNN
	1    3500 1950
	1    0    0    -1  
$EndComp
$Comp
L power:GND #PWR0102
U 1 1 6294943D
P 4500 2400
F 0 "#PWR0102" H 4500 2150 50  0001 C CNN
F 1 "GND" V 4505 2272 50  0000 R CNN
F 2 "" H 4500 2400 50  0001 C CNN
F 3 "" H 4500 2400 50  0001 C CNN
	1    4500 2400
	0    -1   -1   0   
$EndComp
$Comp
L Device:R R1
U 1 1 6294D92B
P 3800 2250
F 0 "R1" H 3870 2296 50  0000 L CNN
F 1 "2k2" H 3870 2205 50  0000 L CNN
F 2 "Resistor_SMD:R_0805_2012Metric" V 3730 2250 50  0001 C CNN
F 3 "~" H 3800 2250 50  0001 C CNN
	1    3800 2250
	1    0    0    -1  
$EndComp
$Comp
L Device:R R2
U 1 1 6294DFD9
P 4100 2400
F 0 "R2" V 3893 2400 50  0000 C CNN
F 1 "3K3" V 3984 2400 50  0000 C CNN
F 2 "Resistor_SMD:R_0805_2012Metric" V 4030 2400 50  0001 C CNN
F 3 "~" H 4100 2400 50  0001 C CNN
	1    4100 2400
	0    1    1    0   
$EndComp
$Comp
L Connector:Conn_01x12_Female J2
U 1 1 6295F49D
P 4650 3250
F 0 "J2" H 4678 3226 50  0000 L CNN
F 1 "Waveshare FPC FFC 0.5mm" H 4200 2500 50  0000 L CNN
F 2 "Connector_FFC-FPC:Hirose_FH12-12S-0.5SH_1x12-1MP_P0.50mm_Horizontal" H 4650 3250 50  0001 C CNN
F 3 "~" H 4650 3250 50  0001 C CNN
	1    4650 3250
	1    0    0    -1  
$EndComp
Wire Wire Line
	3800 2100 3800 2000
Wire Wire Line
	3800 2000 3500 2000
Wire Wire Line
	3500 2000 3500 1950
Wire Wire Line
	3800 2400 3950 2400
$Comp
L power:GND #PWR0103
U 1 1 62988B43
P 3900 3650
F 0 "#PWR0103" H 3900 3400 50  0001 C CNN
F 1 "GND" H 3905 3477 50  0000 C CNN
F 2 "" H 3900 3650 50  0001 C CNN
F 3 "" H 3900 3650 50  0001 C CNN
	1    3900 3650
	0    1    1    0   
$EndComp
Text Label 4250 2950 0    50   ~ 0
BUZ
Text Label 2250 3500 0    50   ~ 0
TXD2
Text Label 3000 3500 0    50   ~ 0
RXD2
Text Label 3000 2800 0    50   ~ 0
GND
Text Label 3000 2900 0    50   ~ 0
GND
Text Label 3000 3000 0    50   ~ 0
GND
Text Label 2250 4100 0    50   ~ 0
5V
Wire Wire Line
	4450 2750 4200 2750
Wire Wire Line
	4450 3250 4200 3250
Wire Wire Line
	4450 3350 4200 3350
Wire Wire Line
	4450 3850 4200 3850
Text Label 3000 3100 0    50   ~ 0
MOSI
Text Label 3000 3200 0    50   ~ 0
MISO
Text Label 3000 3300 0    50   ~ 0
SCK
Text Label 3000 3400 0    50   ~ 0
RXD0
Text Label 3000 3600 0    50   ~ 0
G21
Text Label 3000 3700 0    50   ~ 0
G32
Text Label 3000 3800 0    50   ~ 0
G27
Text Label 3000 3900 0    50   ~ 0
G2
Text Label 2250 2800 0    50   ~ 0
G35
Text Label 2250 2900 0    50   ~ 0
G36
Text Label 2250 3000 0    50   ~ 0
RST
Text Label 2250 3100 0    50   ~ 0
G25
Text Label 2250 3200 0    50   ~ 0
G26
Text Label 2250 3300 0    50   ~ 0
3V3
Text Label 2250 3400 0    50   ~ 0
TXD0
Text Label 2250 3600 0    50   ~ 0
G22
Text Label 2250 3700 0    50   ~ 0
G33
Text Label 2250 3800 0    50   ~ 0
G19
Text Label 2250 3900 0    50   ~ 0
G0
Text Label 2250 4000 0    50   ~ 0
G34
Text Label 2250 4200 0    50   ~ 0
BAT
NoConn ~ 2100 2800
NoConn ~ 2100 2900
NoConn ~ 2100 3000
NoConn ~ 2100 3100
NoConn ~ 2100 3200
NoConn ~ 2100 3300
NoConn ~ 2100 3400
NoConn ~ 2100 3600
NoConn ~ 2100 3700
NoConn ~ 2100 3800
NoConn ~ 2100 3900
NoConn ~ 2100 4000
NoConn ~ 2100 4200
Wire Wire Line
	2450 2800 2100 2800
Wire Wire Line
	2450 2900 2100 2900
Wire Wire Line
	2450 3000 2100 3000
Wire Wire Line
	2450 3100 2100 3100
Wire Wire Line
	2450 3200 2100 3200
Wire Wire Line
	2450 3300 2100 3300
Wire Wire Line
	2450 3400 2100 3400
Wire Wire Line
	2450 3600 2100 3600
Wire Wire Line
	2450 3700 2100 3700
Wire Wire Line
	2450 3800 2100 3800
Wire Wire Line
	2450 3900 2100 3900
Wire Wire Line
	2450 4000 2100 4000
Wire Wire Line
	2450 4200 2100 4200
$Comp
L Connector_Generic:Conn_02x15_Odd_Even J1
U 1 1 629417E2
P 2650 3500
F 0 "J1" H 2700 4417 50  0000 C CNN
F 1 "Core2 GPIO" H 2700 4326 50  0000 C CNN
F 2 "Connector_PinHeader_2.54mm:PinHeader_2x15_P2.54mm_Vertical_SMD" H 2650 3500 50  0001 C CNN
F 3 "~" H 2650 3500 50  0001 C CNN
	1    2650 3500
	1    0    0    -1  
$EndComp
Wire Wire Line
	2950 2800 3300 2800
Wire Wire Line
	2950 2900 3300 2900
Wire Wire Line
	2950 3000 3300 3000
Wire Wire Line
	2950 3100 3300 3100
Wire Wire Line
	2950 3200 3300 3200
Wire Wire Line
	2950 3300 3300 3300
Wire Wire Line
	2950 3400 3300 3400
Wire Wire Line
	2950 3600 3300 3600
Wire Wire Line
	2950 3700 3300 3700
Wire Wire Line
	2950 3800 3300 3800
Wire Wire Line
	2950 3900 3300 3900
Wire Wire Line
	2950 4000 3300 4000
Wire Wire Line
	2950 4100 3300 4100
Wire Wire Line
	2950 4200 3300 4200
NoConn ~ 3300 3100
NoConn ~ 3300 3200
NoConn ~ 3300 3300
NoConn ~ 3300 3400
NoConn ~ 3300 3600
NoConn ~ 3300 3700
NoConn ~ 3300 3800
NoConn ~ 3300 3900
NoConn ~ 3300 4000
NoConn ~ 3300 4100
NoConn ~ 3300 4200
Wire Wire Line
	4250 2400 4500 2400
Wire Wire Line
	1900 3500 2450 3500
Wire Wire Line
	3300 2800 3300 2900
Connection ~ 3300 2900
Wire Wire Line
	2000 4100 2000 2000
Wire Wire Line
	2000 2000 3500 2000
Wire Wire Line
	2000 4100 2450 4100
Connection ~ 3500 2000
Text Label 4250 3250 0    50   ~ 0
D-
Text Label 4250 3350 0    50   ~ 0
D+
Text Label 4250 3450 0    50   ~ 0
TXD
Text Label 4250 3550 0    50   ~ 0
RXD
Text Label 4250 3650 0    50   ~ 0
GND
Text Label 4250 3750 0    50   ~ 0
3V3
Wire Wire Line
	4450 3050 4200 3050
Wire Wire Line
	4450 3150 4200 3150
Wire Wire Line
	4450 2850 4200 2850
Wire Wire Line
	4450 2950 4200 2950
Connection ~ 3800 2400
Wire Wire Line
	2950 3500 3500 3500
Wire Wire Line
	3500 3500 3500 3450
Wire Wire Line
	3500 3450 4450 3450
Wire Wire Line
	1900 3500 1900 4300
Wire Wire Line
	1900 4300 3600 4300
Wire Wire Line
	3600 4300 3600 3550
Wire Wire Line
	3600 3550 4450 3550
Wire Wire Line
	3300 2900 3300 3000
$Comp
L power:GND #PWR?
U 1 1 629A6AB8
P 3300 2900
F 0 "#PWR?" H 3300 2650 50  0001 C CNN
F 1 "GND" H 3305 2727 50  0000 C CNN
F 2 "" H 3300 2900 50  0001 C CNN
F 3 "" H 3300 2900 50  0001 C CNN
	1    3300 2900
	0    -1   -1   0   
$EndComp
Wire Wire Line
	4450 3650 3900 3650
Wire Wire Line
	3800 3250 4000 3250
Wire Wire Line
	4000 3250 4000 3750
Wire Wire Line
	3800 2400 3800 3250
Wire Wire Line
	4000 3750 4450 3750
$EndSCHEMATC
